<?xml version="1.0" encoding="UTF-8"?>
<svg width="21px" height="16px" viewBox="0 0 21 16" version="1.1" xmlns="http://www.w3.org/2000/svg" xmlns:xlink="http://www.w3.org/1999/xlink">
    <!-- Generator: Sketch 61 (89581) - https://sketch.com -->
    <title>weibo-icon</title>
    <desc>Created with Sketch.</desc>
    <g id="Share-Numbers-+-block-element" stroke="none" stroke-width="1" fill="none" fill-rule="evenodd">
        <g id="01-1-share-china" transform="translate(-186.000000, -431.000000)" fill="#ACACAC" fill-rule="nonzero">
            <g id="D" transform="translate(27.000000, 34.000000)">
                <g id="Stats" transform="translate(0.000000, 255.000000)">
                    <g id="Group" transform="translate(15.714286, 56.285714)">
                        <path d="M153.2292,88.6179388 C153.7004,89.0889388 153.7462,89.9043388 153.4432,90.8779388 C153.2852,91.3689388 153.9034,91.0969388 153.9034,91.0981388 C155.8724,90.2737388 157.5904,90.2255388 158.2182,91.1221388 C158.553,91.6005388 158.5214,92.2705388 158.2128,93.0481388 C158.0958,93.340557 158.199843,93.4312116 158.390631,93.4990936 L158.5292,93.5429388 C159.6386,93.8869388 160.8734,94.7189388 160.8732,96.1849388 C160.8732,98.6111388 157.3744,101.667339 152.1144,101.667339 C148.1018,101.667339 144,99.7227388 144,96.5243388 C144,94.8523388 145.0594,92.9185388 146.8834,91.0937388 C149.3202,88.6583388 152.161,87.5487388 153.2292,88.6179388 Z M151.3724,92.9091388 C148.1714,93.2255388 145.7436,95.1859388 145.9514,97.2877388 C146.1594,99.3903388 148.9234,100.836939 152.125,100.521139 C155.327,100.204539 157.754,98.2437388 157.5462,96.1409388 C157.3388,94.0393388 154.5746,92.5921388 151.3724,92.9091388 Z M148.5376,96.2321388 C149.1992,94.8893388 150.9216,94.1301388 152.445,94.5267388 C154.0218,94.9341388 154.8266,96.4215388 154.182,97.8665388 C153.5284,99.3443388 151.6492,100.132339 150.0544,99.6183388 C148.5152,99.1209388 147.8638,97.6013388 148.5376,96.2321388 Z M150.9242,96.7403388 C150.428,96.5325388 149.7874,96.7465388 149.4816,97.2261388 C149.1716,97.7077388 149.317,98.2819388 149.8092,98.5057388 C150.309,98.7339388 150.9718,98.5175388 151.2816,98.0235388 C151.5858,97.5241388 151.4252,96.9543388 150.9242,96.7403388 Z M152.1458,96.2337388 C151.9556,96.1583388 151.7176,96.2497388 151.606,96.4369388 C151.4976,96.6251388 151.5574,96.8391388 151.7482,96.9177388 C151.9422,96.9973388 152.1898,96.9053388 152.3018,96.7135388 C152.4086,96.5213388 152.3394,96.3045388 152.1458,96.2337388 Z M161.844946,87.5031159 L162.0218,87.6897388 L162.189369,87.8846713 C163.265496,89.2010963 163.579954,90.9097077 163.164808,92.4548144 L163.0932,92.6973388 C162.967,93.0885388 162.5496,93.3017388 162.161,93.1759388 C161.803317,93.0606222 161.594363,92.7007847 161.659073,92.3413673 L161.6836,92.2435388 C162.0698,91.0467388 161.8248,89.6825388 160.9226,88.6823388 C160.0196,87.6821388 158.6878,87.2997388 157.4578,87.5611388 C157.0576,87.6463388 156.664,87.3909388 156.5788,86.9913388 C156.50015,86.6248555 156.708203,86.2634138 157.051372,86.1399388 L157.1488,86.1123388 C158.7994,85.7614479 160.581753,86.2346074 161.844946,87.5031159 Z M160.0716,89.4501388 C160.6914,90.1355388 160.8566,91.0693388 160.592,91.8893388 C160.484,92.2249388 160.1246,92.4077388 159.7892,92.3005388 C159.484473,92.2016297 159.305696,91.8954479 159.356701,91.5890557 L159.414031,91.3619076 C159.48758,90.9965215 159.393378,90.6024277 159.1244,90.3039388 C158.855422,90.0065166 158.472825,89.872966 158.101622,89.9083438 L157.9632,89.9295388 C157.6202,90.0037388 157.2812,89.7833388 157.2078,89.4401388 C157.1334,89.0955388 157.353,88.7561388 157.6976,88.6831388 C158.5402,88.5041388 159.4528,88.7643388 160.0716,89.4501388 Z" id="weibo-icon"></path>
                    </g>
                </g>
            </g>
        </g>
    </g>
</svg>