<?xml version="1.0" encoding="UTF-8"?>
<svg width="43px" height="73px" viewBox="0 0 43 73" version="1.1" xmlns="http://www.w3.org/2000/svg" xmlns:xlink="http://www.w3.org/1999/xlink">
    <!-- Generator: Sketch 55.1 (78136) - https://sketchapp.com -->
    <title>bug</title>
    <desc>Created with Sketch.</desc>
    <g id="Day-1" stroke="none" stroke-width="1" fill="none" fill-rule="evenodd">
        <g id="Day1-Landing2" transform="translate(-254.000000, -546.000000)">
            <g id="bug" transform="translate(249.611134, 542.835419)">
                <g id="001-ladybug" transform="translate(26.500000, 25.500000) rotate(20.000000) translate(-26.500000, -25.500000) translate(6.000000, 6.000000)" fill-rule="nonzero">
                    <path d="M40.1269153,24.9070747 L35.0622178,24.7504791 C35.4166081,22.5360638 35.4159152,20.2799126 35.0601393,18.0661872 L39.9762215,16.9010322 C40.4525525,16.787897 40.7470117,16.3119012 40.6337315,15.8372851 C40.5201049,15.3630139 40.0420418,15.069828 39.5653644,15.1829632 L34.7033241,16.3350112 C34.0149825,13.6121771 32.7713256,11.1142339 31.0412914,9.04054774 C30.0564121,7.84883366 28.8965895,6.81130077 27.6013156,5.9638212 L30.3162291,1.42840898 C30.5666926,1.00932578 30.4288164,0.467449364 30.0082594,0.217724026 C29.587356,-0.0320013114 29.0431262,0.105278595 28.7923163,0.524361885 L26.0552318,5.09771585 C22.5515142,3.4089655 18.4651141,3.4079307 14.9607036,5.09495646 L12.2211942,0.436751018 C11.9735021,0.0159432161 11.4303115,-0.125130971 11.007676,0.121145167 C10.5850405,0.367766118 10.4430073,0.908607734 10.6906994,1.32941571 L13.4146198,5.960372 C12.116921,6.80888627 10.9550198,7.84745396 9.96875483,9.04089273 C8.23352436,11.1204425 6.98813531,13.6266639 6.30117939,16.3588109 L1.34144793,15.1833082 C0.86511692,15.070173 0.386707416,15.3633588 0.273427224,15.83763 C0.159800631,16.3122461 0.454259833,16.7882419 0.930590846,16.9013771 L5.94644271,18.089987 C5.59413101,20.296124 5.5948239,22.5439971 5.9478284,24.7501342 L0.873777461,24.9070747 C0.383936036,24.9143182 -0.00717500559,25.3154653 0,25.8031886 C0.00737473216,26.2909119 0.410610549,26.6803317 0.900452063,26.6730882 L0.928512266,26.6730882 L6.30914713,26.5064897 C6.91954369,28.9668361 8.0298279,31.2764506 9.57140816,33.2925343 L4.22853341,35.1168399 C3.92818505,35.2189376 3.70508893,35.472802 3.64411857,35.7825443 C3.5828018,36.0926314 3.69261772,36.4116866 3.93234212,36.6189862 C4.17172003,36.8262858 4.50393926,36.8907867 4.80394123,36.7873093 L10.819915,34.732939 C13.5085003,37.4940597 16.9055197,39 20.5051964,39 C24.0955195,39 27.4845712,37.5013031 30.1696923,34.7539795 L36.1139567,36.6979738 C36.57747,36.843532 37.0721614,36.5910473 37.2238945,36.1316079 C37.3756275,35.6718235 37.1272426,35.176167 36.6675399,35.0202611 L31.427899,33.3070212 C32.9750221,31.2874882 34.0891169,28.9726998 34.7005527,26.5064897 L40.0718341,26.6727433 L40.0998943,26.6727433 C40.5897359,26.6799868 40.9926253,26.2905669 41,25.8028437 C41.007175,25.3151204 40.616064,24.9139733 40.1265689,24.9067298 L40.1269153,24.9070747 Z M20.5051964,5.57785075 C25.2674669,5.57785075 29.4415122,8.72735639 31.7199332,13.3189913 L9.29011306,13.3189913 C11.5685341,8.72735639 15.7425793,5.57785075 20.5051964,5.57785075 Z M7.45403873,21.4060911 C7.44991653,19.2527274 7.81747091,17.1145404 8.54114757,15.0850048 L19.6135047,15.0850048 L19.6135047,37.1967347 C12.8735078,36.6420961 7.45403873,29.767061 7.45403873,21.4060911 Z M21.3871881,37.1967347 L21.3871881,15.0850048 L32.4688987,15.0850048 C32.731487,15.8403894 32.9511189,16.609916 33.127448,17.3897902 C33.125023,17.5174123 33.1506583,17.6443445 33.2022752,17.7612739 C33.4361105,18.9650604 33.5532012,20.1881627 33.5514881,21.4136794 C33.5514881,29.7753392 28.2158692,36.6420961 21.3871881,37.1967347 Z" id="Shape" fill="#000000"></path>
                    <path d="M16.5,17 C15.1193427,17 14,18.1193426 14,19.5 C14,20.8806572 15.1193427,22 16.5,22 C17.8806573,22 19,20.8806572 19,19.5 C18.9983163,18.1200161 17.8799839,17.0016837 16.5,17 Z" id="Shape" fill="#C70D2C"></path>
                    <path d="M13.5,25 C12.1193427,25 11,26.1193426 11,27.5 C11,28.8806572 12.1193427,30 13.5,30 C14.8806573,30 16,28.8806572 16,27.5 C15.9983163,26.1200161 14.8799839,25.0016837 13.5,25 Z" id="Shape" fill="#C70D2C"></path>
                    <path d="M27,19.5 C27,18.1193426 25.8806573,17 24.5,17 C23.1193427,17 22,18.1193426 22,19.5 C22,20.8806572 23.1193427,22 24.5,22 C25.8799839,21.9986529 26.9983163,20.8803205 27,19.5 Z" id="Shape" fill="#C70D2C"></path>
                    <path d="M27.5,25 C26.1193427,25 25,26.1193426 25,27.5 C25,28.8806572 26.1193427,30 27.5,30 C28.8806573,30 30,28.8806572 30,27.5 C29.9983163,26.1200161 28.8799839,25.0016837 27.5,25 Z" id="Shape" fill="#C70D2C"></path>
                </g>
                <path d="M12.3359625,54.4792016 C11.5468836,63.1265315 12.5563933,66.7058685 15.3644917,65.2172125 C19.5766393,62.9842285 22.200011,66.215938 20.3902724,74.5298214" id="Path-3" stroke="#000000" transform="translate(16.523812, 64.504511) rotate(25.000000) translate(-16.523812, -64.504511) "></path>
            </g>
        </g>
    </g>
</svg>