<?xml version="1.0" encoding="UTF-8"?>
<svg width="21px" height="21px" viewBox="0 0 21 21" version="1.1" xmlns="http://www.w3.org/2000/svg" xmlns:xlink="http://www.w3.org/1999/xlink">
    <!-- Generator: Sketch 58 (84663) - https://sketch.com -->
    <title>checkmark-icon</title>
    <desc>Created with Sketch.</desc>
    <g id="Symbols" stroke="none" stroke-width="1" fill="none" fill-rule="evenodd">
        <g id="updates-line" transform="translate(-15.000000, -22.000000)">
            <g id="checkmark-icon">
                <g transform="translate(15.000000, 22.000000)">
                    <circle id="Oval" fill="#C2E5F8" cx="10.5" cy="10.5" r="10.5"></circle>
                    <path d="M14.293,7.293 C14.6853789,6.91402779 15.3090848,6.91944763 15.6948186,7.30518142 C16.0805524,7.69091522 16.0859722,8.31462111 15.707,8.707 L9.707,14.707 C9.31650015,15.0973819 8.68349985,15.0973819 8.293,14.707 L5.293,11.707 C4.91402779,11.3146211 4.91944763,10.6909152 5.30518142,10.3051814 C5.69091522,9.91944763 6.31462111,9.91402779 6.707,10.293 L9,12.586 L14.293,7.293 Z" id="Path" fill="#0797E1"></path>
                </g>
            </g>
        </g>
    </g>
</svg>